Software Carpentry: R for reproducible scientific analysis
…
Those messages and conflicts are normal. The conflicts are R telling you that there are two packages with functions named “filter” and “lag”. When R gives you red text, it’s not always a bad thing, but it does mean you should pay attention and try to understand what it’s trying to tell you.

Remember that you only have to install each package once (per computer), but you have to load them for each R session in which you want to use them.

You also have to load any data you want to use each time you start a new R session. So, if it’s not already loaded, read in the gapminder data. We’re going to use tidyverse’s read_csv instead of base R’s read.csv here. It has a few nice features; the most obvious is that it makes a special kind of data.frame that only prints the first ten rows instead of all 1704.

gapminder <- read_csv('data/gapminder-FiveYearData.csv')
class(gapminder)

[1] "tbl_df"     "tbl"        "data.frame"

gapminder

# A tibble: 1,704 × 6
       country  year      pop continent lifeExp gdpPercap
         <chr> <int>    <dbl>     <chr>   <dbl>     <dbl>
1  Afghanistan  1952  8425333      Asia  28.801  779.4453
2  Afghanistan  1957  9240934      Asia  30.332  820.8530
3  Afghanistan  1962 10267083      Asia  31.997  853.1007
4  Afghanistan  1967 11537966      Asia  34.020  836.1971
5  Afghanistan  1972 13079460      Asia  36.088  739.9811
6  Afghanistan  1977 14880372      Asia  38.438  786.1134
7  Afghanistan  1982 12881816      Asia  39.854  978.0114
8  Afghanistan  1987 13867957      Asia  40.822  852.3959
9  Afghanistan  1992 16317921      Asia  41.674  649.3414
10 Afghanistan  1997 22227415      Asia  41.763  635.3414
# ... with 1,694 more rows
…
We can also apply multiple conditions, e.g. the US after 2000:

filter(gapminder, country == "United States" & year > 2000)

# A tibble: 2 × 6
        country  year       pop continent lifeExp gdpPercap
          <chr> <int>     <dbl>     <chr>   <dbl>     <dbl>
1 United States  2002 287675526  Americas  77.310  39097.10
2 United States  2007 301139947  Americas  78.242  42951.65

We can also use “or” conditions with the vertical pipe: |. Notice that the variable (column) names don’t go in quotes, but values of character variables do.

filter(gapminder, country == "United States" | country == "Mexico")

# A tibble: 24 × 6
   country  year      pop continent lifeExp gdpPercap
     <chr> <int>    <dbl>     <chr>   <dbl>     <dbl>
1   Mexico  1952 30144317  Americas  50.789  3478.126
2   Mexico  1957 35015548  Americas  55.190  4131.547
3   Mexico  1962 41121485  Americas  58.299  4581.609
4   Mexico  1967 47995559  Americas  60.110  5754.734
5   Mexico  1972 55984294  Americas  62.361  6809.407
6   Mexico  1977 63759976  Americas  65.032  7674.929
7   Mexico  1982 71640904  Americas  67.405  9611.148
8   Mexico  1987 80122492  Americas  69.498  8688.156
9   Mexico  1992 88111030  Americas  71.455  9472.384
10  Mexico  1997 95895146  Americas  73.670  9767.298
# ... with 14 more rows
A good, handy reference list for the operators (and, or, etc) can be found here.

select()

filter returned a subset of the data.frame’s rows. select returns a subset of the data.frame’s columns.

Suppose we only want to see country and life expectancy.

select(gapminder, country, lifeExp)

We can choose which columns we don’t want

select(gapminder, -continent, income = gdpPercap)

# A tibble: 1,704 × 5
       country  year      pop lifeExp   income
         <chr> <int>    <dbl>   <dbl>    <dbl>
1  Afghanistan  1952  8425333  28.801 779.4453
2  Afghanistan  1957  9240934  30.332 820.8530
3  Afghanistan  1962 10267083  31.997 853.1007
4  Afghanistan  1967 11537966  34.020 836.1971
5  Afghanistan  1972 13079460  36.088 739.9811
6  Afghanistan  1977 14880372  38.438 786.1134
7  Afghanistan  1982 12881816  39.854 978.0114
8  Afghanistan  1987 13867957  40.822 852.3959
9  Afghanistan  1992 16317921  41.674 649.3414
10 Afghanistan  1997 22227415  41.763 635.3414
# ... with 1,694 more rows

And we can rename columns

select(gapminder, ThePlace = country, HowLongTheyLive = lifeExp)

# A tibble: 1,704 × 2
      ThePlace HowLongTheyLive
         <chr>           <dbl>
1  Afghanistan          28.801
2  Afghanistan          30.332
3  Afghanistan          31.997
4  Afghanistan          34.020
5  Afghanistan          36.088
6  Afghanistan          38.438
7  Afghanistan          39.854
8  Afghanistan          40.822
9  Afghanistan          41.674
10 Afghanistan          41.763
# ... with 1,694 more rows
…
Remove the continent column

Make a scatter plot of gdpPercap vs. population colored by country

Advanced How would you determine the median population for the North American countries between 1970 and 1980?

Bonus This can be done using base R’s subsetting, but this class doesn’t teach how. Do the original challenge without the filter and select functions. Feel free to consult Google, helpfiles, etc. to figure out how.

arrange()

You can order the rows of a data.frame by a variable using arrange. Suppose we want to see the most populous countries:

arrange(gapminder, pop)

# A tibble: 1,704 × 6
                 country  year   pop continent lifeExp gdpPercap
                   <chr> <int> <dbl>     <chr>   <dbl>     <dbl>
1  Sao Tome and Principe  1952 60011    Africa  46.471  879.5836
2  Sao Tome and Principe  1957 61325    Africa  48.945  860.7369
3               Djibouti  1952 63149    Africa  34.812 2669.5295
4  Sao Tome and Principe  1962 65345    Africa  51.893 1071.5511
5  Sao Tome and Principe  1967 70787    Africa  54.425 1384.8406
6               Djibouti  1957 71851    Africa  37.328 2864.9691
7  Sao Tome and Principe  1972 76595    Africa  56.480 1532.9853
8  Sao Tome and Principe  1977 86796    Africa  58.550 1737.5617
9               Djibouti  1962 89898    Africa  39.693 3020.9893
10 Sao Tome and Principe  1982 98593    Africa  60.351 1890.2181
# ... with 1,694 more rows

Hmm, we didn’t get the most populous countries. By default, arrange sorts the variable in increasing order. We could see the most populous countries by examining the tail of the last command, or we can sort the data.frame by descending population by wrapping the variable in desc():

arrange(gapminder, desc(pop))

# A tibble: 1,704 × 6
   country  year        pop continent  lifeExp gdpPercap
     <chr> <int>      <dbl>     <chr>    <dbl>     <dbl>
1    China  2007 1318683096      Asia 72.96100 4959.1149
2    China  2002 1280400000      Asia 72.02800 3119.2809
3    China  1997 1230075000      Asia 70.42600 2289.2341
4    China  1992 1164970000      Asia 68.69000 1655.7842
5    India  2007 1110396331      Asia 64.69800 2452.2104
6    China  1987 1084035000      Asia 67.27400 1378.9040
7    India  2002 1034172547      Asia 62.87900 1746.7695
8    China  1982 1000281000      Asia 65.52500  962.4214
9    India  1997  959000000      Asia 61.76500 1458.8174
10   China  1977  943455000      Asia 63.96736  741.2375
# ... with 1,694 more rows

arrange can also sort by multiple variables. It will sort the data.frame by the first variable, and if there are any ties in that variable, they will be sorted by the next variable, and so on. Here we sort from newest to oldest, and within year from richest to poorest:

arrange(gapminder, desc(year), desc(gdpPercap))

# A tibble: 1,704 × 6
           country  year       pop continent lifeExp gdpPercap
             <chr> <int>     <dbl>     <chr>   <dbl>     <dbl>
1           Norway  2007   4627926    Europe  80.196  49357.19
2           Kuwait  2007   2505559      Asia  77.588  47306.99
3        Singapore  2007   4553009      Asia  79.972  47143.18
4    United States  2007 301139947  Americas  78.242  42951.65
5          Ireland  2007   4109086    Europe  78.885  40676.00
6  Hong Kong China  2007   6980412      Asia  82.208  39724.98
7      Switzerland  2007   7554661    Europe  81.701  37506.42
8      Netherlands  2007  16570613    Europe  79.762  36797.93
9           Canada  2007  33390141  Americas  80.653  36319.24
10         Iceland  2007    301931    Europe  81.757  36180.79
# ... with 1,694 more rows

Shoutout Q: Would we get the same output if we switched the order of desc(year) and desc(gdpPercap) in the last line?

mutate()

We have learned how to drop rows, drop columns, and rearrange rows. To make a new column we use the mutate function. As usual, the first argument is a data.frame. The second argument is the name of the new column you want to create, followed by an equal sign, followed by what to put in that column. You can reference other variables in the data.frame, and mutate will treat each row independently. E.g. we can calculate the total GDP of each country in each year by multiplying the per-capita GDP by the population.

mutate(gapminder, total_gdp = gdpPercap * pop)

# A tibble: 1,704 × 7
       country  year      pop continent lifeExp gdpPercap   total_gdp
         <chr> <int>    <dbl>     <chr>   <dbl>     <dbl>       <dbl>
1  Afghanistan  1952  8425333      Asia  28.801  779.4453  6567086330
2  Afghanistan  1957  9240934      Asia  30.332  820.8530  7585448670
3  Afghanistan  1962 10267083      Asia  31.997  853.1007  8758855797
4  Afghanistan  1967 11537966      Asia  34.020  836.1971  9648014150
5  Afghanistan  1972 13079460      Asia  36.088  739.9811  9678553274
6  Afghanistan  1977 14880372      Asia  38.438  786.1134 11697659231
7  Afghanistan  1982 12881816      Asia  39.854  978.0114 12598563401
8  Afghanistan  1987 13867957      Asia  40.822  852.3959 11820990309
9  Afghanistan  1992 16317921      Asia  41.674  649.3414 10595901589
10 Afghanistan  1997 22227415      Asia  41.763  635.3414 14121995875
# ... with 1,694 more rows
…
$331

$339

Advanced: Use dplyr functions and ggplot to plot per-capita GDP versus population for North American countries after 1970. - Once you’ve made the graph, transform both axes to a log10 scale. There are two ways to do this, one by creating new columns in the data frame, and another using functions provided by ggplot to transform the axes. Implement both, in that order. Which do you prefer and why?

C’est ne pas une pipe

Suppose we want to look at all the countries where life expectancy is greater than 80 years, sorted from poorest to richest. First, we filter, then we arrange. We could assign the intermediate data.frame to a variable:

lifeExpGreater80 = filter(gapminder, lifeExp > 80)
(lifeExpGreater80sorted = arrange(lifeExpGreater80, gdpPercap))

# A tibble: 21 × 8
           country  year       pop continent lifeExp gdpPercap
             <chr> <int>     <dbl>     <chr>   <dbl>     <dbl>
1      New Zealand  2007   4115771   Oceania  80.204  25185.01
2           Israel  2007   6426679      Asia  80.745  25523.28
3            Italy  2002  57926999    Europe  80.240  27968.10
4            Italy  2007  58147733    Europe  80.546  28569.72
5            Japan  2002 127065841      Asia  82.000  28604.59
6            Japan  1997 125956499      Asia  80.690  28816.58
7            Spain  2007  40448191    Europe  80.941  28821.06
8           Sweden  2002   8954175    Europe  80.040  29341.63
9  Hong Kong China  2002   6762476      Asia  81.495  30209.02
10          France  2007  61083916    Europe  80.657  30470.02
# ... with 11 more rows, and 2 more variables: total_gdp <dbl>,
#   log_gdp <dbl>

In this case it doesn’t much matter, but we make a whole new data.frame (lifeExpGreater80) and only use it once; that’s a little wasteful of system resources, and it clutters our environment. If the data are large, that can be a big problem.

Or, we could nest each function so that it appears on one line:

arrange(filter(gapminder, lifeExp > 80), gdpPercap)

# A tibble: 21 × 8
           country  year       pop continent lifeExp gdpPercap
             <chr> <int>     <dbl>     <chr>   <dbl>     <dbl>
1      New Zealand  2007   4115771   Oceania  80.204  25185.01
2           Israel  2007   6426679      Asia  80.745  25523.28
3            Italy  2002  57926999    Europe  80.240  27968.10
4            Italy  2007  58147733    Europe  80.546  28569.72
5            Japan  2002 127065841      Asia  82.000  28604.59
6            Japan  1997 125956499      Asia  80.690  28816.58
7            Spain  2007  40448191    Europe  80.941  28821.06
8           Sweden  2002   8954175    Europe  80.040  29341.63
9  Hong Kong China  2002   6762476      Asia  81.495  30209.02
10          France  2007  61083916    Europe  80.657  30470.02
# ... with 11 more rows, and 2 more variables: total_gdp <dbl>,
#   log_gdp <dbl>

This would become difficult to read if we are performing a number of operations that would require a repeated nesting. But…

There is a better way, and it makes both writing and reading the code easier. The pipe from the magrittr package (which is automatically installed and loaded with dplyr and tidyverse) takes the output of first line, and plugs it in as the first argument of the next line. Since many tidyverse functions expect a data.frame as the first argument and output a data.frame, this works fluidly.

filter(gapminder, lifeExp > 80) %>%
    arrange(gdpPercap)

# A tibble: 21 × 8
           country  year       pop continent lifeExp gdpPercap
             <chr> <int>     <dbl>     <chr>   <dbl>     <dbl>
1      New Zealand  2007   4115771   Oceania  80.204  25185.01
2           Israel  2007   6426679      Asia  80.745  25523.28
3            Italy  2002  57926999    Europe  80.240  27968.10
4            Italy  2007  58147733    Europe  80.546  28569.72
5            Japan  2002 127065841      Asia  82.000  28604.59
6            Japan  1997 125956499      Asia  80.690  28816.58
7            Spain  2007  40448191    Europe  80.941  28821.06
8           Sweden  2002   8954175    Europe  80.040  29341.63
9  Hong Kong China  2002   6762476      Asia  81.495  30209.02
10          France  2007  61083916    Europe  80.657  30470.02
# ... with 11 more rows, and 2 more variables: total_gdp <dbl>,
#   log_gdp <dbl>
…
4 %>% sqrt()

[1] 2

2 ^ 2 %>% sum(1)

[1] 5

Whatever goes through the pipe becomes the first argument of the function after the pipe. This is convenient, because all dplyr functions produce a data.frame as their output and take a data.frame as the first argument. Since R ignores white-space, we can put each function on a new line, which RStudio will automatically indent, making everything easy to read. Now each line represents a step in a sequential operation. You can read this as “Take the gapminder data.frame, filter to the rows where lifeExp is greater than 80, and arrange by gdpPercap.”

gapminder %>%
    filter(lifeExp > 80) %>%
    arrange(gdpPercap)

# A tibble: 21 × 8
           country  year       pop continent lifeExp gdpPercap
             <chr> <int>     <dbl>     <chr>   <dbl>     <dbl>
1      New Zealand  2007   4115771   Oceania  80.204  25185.01
2           Israel  2007   6426679      Asia  80.745  25523.28
3            Italy  2002  57926999    Europe  80.240  27968.10
4            Italy  2007  58147733    Europe  80.546  28569.72
5            Japan  2002 127065841      Asia  82.000  28604.59
6            Japan  1997 125956499      Asia  80.690  28816.58
7            Spain  2007  40448191    Europe  80.941  28821.06
8           Sweden  2002   8954175    Europe  80.040  29341.63
9  Hong Kong China  2002   6762476      Asia  81.495  30209.02
10          France  2007  61083916    Europe  80.657  30470.02
# ... with 11 more rows, and 2 more variables: total_gdp <dbl>,
#   log_gdp <dbl>
…
There are several different summary statistics that can be generated from our data. The R base package provides many built-in functions such as mean, median, min, max, and range. By default, all R functions operating on vectors that contains missing data will return NA. It’s a way to make sure that users know they have missing data, and make a conscious decision on how to deal with it. When dealing with simple statistics like the mean, the easiest way to ignore NA (the missing data) is to use na.rm=TRUE (rm stands for remove). An alternate option is to use the function is.na(), which evaluates to true if the value passed to it is not a number. This function is more useful as a part of a filter, where you can filter out everything that is not a number. For that purpose you would do something like

gapminder %>%
  filter(!is.na(someColumn)) 

The ! symbol negates it, so we’re asking for everything that is not an NA.

We often want to calculate the number of entries within a group. E.g. we might wonder if our dataset is balanced by country. We can do this with the n() function, or dplyr provides a count function as a convenience:

gapminder %>%
    group_by(country) %>%
    summarize(number_entries = n())

# A tibble: 142 × 2
       country number_entries
         <chr>          <int>
1  Afghanistan             12
2      Albania             12
3      Algeria             12
4       Angola             12
5    Argentina             12
6    Australia             12
7      Austria             12
8      Bahrain             12
9   Bangladesh             12
10     Belgium             12
# ... with 132 more rows

count(gapminder, country)

# A tibble: 142 × 2
       country     n
         <chr> <int>
1  Afghanistan    12
2      Albania    12
3      Algeria    12
4       Angola    12
5    Argentina    12
6    Australia    12
7      Austria    12
8      Bahrain    12
9   Bangladesh    12
10     Belgium    12
# ... with 132 more rows

We can also do multiple groupings. Suppose we want the maximum life expectancy in each continent for each year. We group by continent and year and calculate the maximum with the max function:

gapminder %>%
    group_by(continent, year) %>%
    summarize(longest_life = max(lifeExp))

Source: local data frame [60 x 3]
Groups: continent [?]

   continent  year longest_life
       <chr> <int>        <dbl>
1     Africa  1952       52.724
2     Africa  1957       58.089
3     Africa  1962       60.246
4     Africa  1967       61.557
5     Africa  1972       64.274
6     Africa  1977       67.064
7     Africa  1982       69.885
8     Africa  1987       71.913
9     Africa  1992       73.615
10    Africa  1997       74.772
# ... with 50 more rows
…
max(c(1, 7, 4))

[1] 7

which.max(c(1, 7, 4))

[1] 2

Now, back to the question: Where lifeExp is at a maximum, what is the entry in country?

gapminder %>%
    group_by(continent, year) %>%
    summarize(longest_life = max(lifeExp), country = country[which.max(lifeExp)])

Source: local data frame [60 x 4]
Groups: continent [?]

   continent  year longest_life   country
       <chr> <int>        <dbl>     <chr>
1     Africa  1952       52.724   Reunion
2     Africa  1957       58.089 Mauritius
3     Africa  1962       60.246 Mauritius
4     Africa  1967       61.557 Mauritius
5     Africa  1972       64.274   Reunion
6     Africa  1977       67.064   Reunion
7     Africa  1982       69.885   Reunion
8     Africa  1987       71.913   Reunion
9     Africa  1992       73.615   Reunion
10    Africa  1997       74.772   Reunion
# ... with 50 more rows
…
Advanced How would you determine the median population for the North American countries between 1970 and 1980?

noAm = filter(gapminder, country == "United States" | 
                country == "Canada" | country == "Mexico" | 
                country == "Puerto Rico" & (year > 1970 & year < 1980)
              )
noAmPop = select(noAm, pop)
median(noAmPop)

Error in median.default(noAmPop): need numeric data

noAmPop

# A tibble: 38 × 1
        pop
      <dbl>
1  14785584
2  17010154
3  18985849
4  20819767
5  22284500
6  23796400
7  25201900
8  26549700
9  28523502
10 30305843
# ... with 28 more rows
…
