…
We can transform the data to tidy form with the `gather` function from the `tidyr` package, which of course is part of the `tidyverse`.

Let's look at the arguments to `gather` include the data.frame you're gathering, which columns to gather, and names for two columns in the new data.frame: the key and the value. The key will consist of the old names of gathered columns, and the value will consist of the entries in those columns. The order of arguments is data.frame, key, value, columns-to-gather:


~~~{.r}
gather(blood, key = condition, value = albumin,
       control, treatment1, treatment2)
~~~



~~~{.output}
# A tibble: 36 × 4
   subject   sex condition albumin
     <int> <chr>     <chr>   <dbl>
1        1     M   control    4.49
2        2     F   control    5.98
3        3     F   control    3.77
4        4     M   control    2.60
5        5     M   control    5.20
6        6     F   control    4.22
7        7     F   control    2.25
8        8     F   control    3.76
9        9     M   control    4.93
10      10     M   control    5.66
# ... with 26 more rows
…
